<?xml version="1.0" encoding="UTF-8"?>
<svg width="15px" height="15px" viewBox="0 0 15 15" version="1.1" xmlns="http://www.w3.org/2000/svg" xmlns:xlink="http://www.w3.org/1999/xlink">
    <!-- Generator: Sketch 50.2 (55047) - http://www.bohemiancoding.com/sketch -->
    <title>Shape</title>
    <desc>Created with Sketch.</desc>
    <defs></defs>
    <g id="blog-categories" stroke="none" stroke-width="1" fill="none" fill-rule="evenodd">
        <g transform="translate(-1268.000000, -392.000000)" fill="#d4d4d4" fill-rule="nonzero" id="Shape">
            <path d="M1282.80393,405.866667 L1279.83648,402.9 C1280.77006,401.733333 1281.33687,400.266667 1281.33687,398.666667 C1281.33687,395 1278.33608,392 1274.66844,392 C1271.0008,392 1268,395 1268,398.666667 C1268,402.333333 1271.0008,405.333333 1274.66844,405.333333 C1276.26886,405.333333 1277.73592,404.766667 1278.86955,403.833333 L1281.83701,406.8 C1281.97038,406.933333 1282.13709,407 1282.3038,407 C1282.47051,407 1282.63722,406.933333 1282.77059,406.8 C1283.07067,406.533333 1283.07067,406.133333 1282.80393,405.866667 Z M1269.33369,398.666667 C1269.33369,395.733333 1271.73432,393.333333 1274.66844,393.333333 C1277.60255,393.333333 1280.00319,395.733333 1280.00319,398.666667 C1280.00319,401.6 1277.60255,404 1274.66844,404 C1271.73432,404 1269.33369,401.6 1269.33369,398.666667 Z"></path>
        </g>
    </g>
</svg>