<svg xmlns="http://www.w3.org/2000/svg" width="9.31" height="20.036" viewBox="0 0 9.31 20.036">
  <g id="Group_44" data-name="Group 44" transform="translate(-254 -7222)">
    <path id="iconfinder_06-facebook_104498" d="M27.292,12.584H24.121V10.5A.847.847,0,0,1,25,9.541h2.237V6.108L24.159,6.1a3.9,3.9,0,0,0-4.2,4.2v2.289H17.982v3.538H19.96v10.01h4.161V16.121h2.808Z" transform="translate(236.018 7215.904)" fill="#fff"/>
  </g>
</svg>
